[{ "range": "^2.0.0", "version":  "2.0.0" },
{ "range": "^2.0.0", "version":  "1.1.0" },
{ "range": "^2.0.0", "version":  "1.1.0" },
{ "range": "^2.0.0", "version":  "1.1.0" },
{ "range": "^2.0.0", "version":  "1.1.0" },
{ "range": "^2.0.0", "version": "1.1.0" },
{ "range": "^2.0.0", "version":  "1.1.0" },
{ "range": "^2.0.0", "version":  "1.1.0" },
{ "range": "^2.0.0", "version":  "1.1.0" },
{ "range": "Y.Z.YZ", "version":  "1.1.0" },
{
  "range": "^2.0.0 || ^3.0.0",
  "version": "2.0.0"
},
{
  "range": "^2.0.0-alpha.1",
  "version": "2.0.0"
},
{
  "range": "^2.0.0-alpha.1",
  "version": "2.0.0"
},
{
  "range": "< 2.0.0",
  "version": "1.0.0-alpha.1"
}]
