{
  "version": "14.0.0",
  "vulnerabilities": [
    {
      "id": "af3f9589401b9310e870affdf0e3c7be0bead7bd9e77d61ef68e0ab85aa4791c",
      "category": "dependency_scanning",
      "name": "Improper Restriction of Operations within the Bounds of a Memory Buffer",
      "message": "Improper Restriction of Operations within the Bounds of a Memory Buffer in jerryscript",
      "description": "An issue was discovered in `ecma/operations/ecma-container-object.c` in JerryScript. Operations with key/value pairs did not consider the case where garbage collection is triggered after the key operation but before the value operation, as demonstrated by improper read access to memory in `ecma_gc_set_object_visited` in `ecma/base/ecma-gc.c`.",
      "cve": "conan.lock:jerryscript:gemnasium:013a038e-8865-4f92-aedc-0796684481d4",
      "severity": "High",
      "solution": "Upgrade to version 2.3.0 or above.",
      "scanner": {
        "id": "gemnasium",
        "name": "Gemnasium"
      },
      "location": {
        "file": "conan.lock",
        "dependency": {
          "package": {
            "name": "jerryscript"
          },
          "version": "2.2.0"
        }
      },
      "identifiers": [
        {
          "type": "gemnasium",
          "name": "Gemnasium-013a038e-8865-4f92-aedc-0796684481d4",
          "value": "013a038e-8865-4f92-aedc-0796684481d4",
          "url": "https://gitlab.com/gitlab-org/security-products/gemnasium-db/-/blob/v1.2.142/conan/jerryscript/CVE-2020-14163.yml"
        },
        {
          "type": "cve",
          "name": "CVE-2020-14163",
          "value": "CVE-2020-14163",
          "url": "https://cve.mitre.org/cgi-bin/cvename.cgi?name=CVE-2020-14163"
        }
      ],
      "links": [
        {
          "url": "https://nvd.nist.gov/vuln/detail/CVE-2020-14163"
        }
      ]
    },
    {
      "id": "6d59c70d0bea9375d916142696bc87adb9876c0b965c60b3c7dc3cd7fe6967e1",
      "category": "dependency_scanning",
      "name": "Uncontrolled Resource Consumption",
      "message": "Uncontrolled Resource Consumption in jerryscript",
      "description": "JerryScript allows attackers to cause a denial of service (stack consumption) via a proxy operation.",
      "cve": "conan.lock:jerryscript:gemnasium:1dbd122e-b5ab-4cf0-a81b-545500fcfd5e",
      "severity": "High",
      "solution": "Upgrade to version 2.3.0 or above.",
      "scanner": {
        "id": "gemnasium",
        "name": "Gemnasium"
      },
      "location": {
        "file": "conan.lock",
        "dependency": {
          "package": {
            "name": "jerryscript"
          },
          "version": "2.2.0"
        }
      },
      "identifiers": [
        {
          "type": "gemnasium",
          "name": "Gemnasium-1dbd122e-b5ab-4cf0-a81b-545500fcfd5e",
          "value": "1dbd122e-b5ab-4cf0-a81b-545500fcfd5e",
          "url": "https://gitlab.com/gitlab-org/security-products/gemnasium-db/-/blob/v1.2.142/conan/jerryscript/CVE-2020-13623.yml"
        },
        {
          "type": "cve",
          "name": "CVE-2020-13623",
          "value": "CVE-2020-13623",
          "url": "https://cve.mitre.org/cgi-bin/cvename.cgi?name=CVE-2020-13623"
        }
      ],
      "links": [
        {
          "url": "https://nvd.nist.gov/vuln/detail/CVE-2020-13623"
        }
      ]
    },
    {
      "id": "d65d4779fd085648d12c3ccff296aef82e98673a2e45cc41be954afba50afa74",
      "category": "dependency_scanning",
      "name": "Reachable Assertion",
      "message": "Reachable Assertion in jerryscript",
      "description": "JerryScript allows attackers to cause a denial of service (assertion failure) because a property key query for a Proxy object returns unintended data.",
      "cve": "conan.lock:jerryscript:gemnasium:30e927ab-bba0-4585-a3b8-892baf51676e",
      "severity": "High",
      "solution": "Upgrade to version 2.3.0 or above.",
      "scanner": {
        "id": "gemnasium",
        "name": "Gemnasium"
      },
      "location": {
        "file": "conan.lock",
        "dependency": {
          "package": {
            "name": "jerryscript"
          },
          "version": "2.2.0"
        }
      },
      "identifiers": [
        {
          "type": "gemnasium",
          "name": "Gemnasium-30e927ab-bba0-4585-a3b8-892baf51676e",
          "value": "30e927ab-bba0-4585-a3b8-892baf51676e",
          "url": "https://gitlab.com/gitlab-org/security-products/gemnasium-db/-/blob/v1.2.142/conan/jerryscript/CVE-2020-13622.yml"
        },
        {
          "type": "cve",
          "name": "CVE-2020-13622",
          "value": "CVE-2020-13622",
          "url": "https://cve.mitre.org/cgi-bin/cvename.cgi?name=CVE-2020-13622"
        }
      ],
      "links": [
        {
          "url": "https://nvd.nist.gov/vuln/detail/CVE-2020-13622"
        }
      ]
    },
    {
      "id": "e2d1564a61820e488baa48c0a3e143e3020e710b406bb49a0d70ee8b656a8088",
      "category": "dependency_scanning",
      "name": "Out-of-bounds Write",
      "message": "Out-of-bounds Write in jerryscript",
      "description": "JerryScript allows stack consumption via `function a(){new new Proxy(a,{})}JSON.parse(\"[]\",a).`",
      "cve": "conan.lock:jerryscript:gemnasium:57af9db1-0aaf-482d-b0b5-1ea4f2027ca0",
      "severity": "High",
      "solution": "Unfortunately, there is no solution available yet.",
      "scanner": {
        "id": "gemnasium",
        "name": "Gemnasium"
      },
      "location": {
        "file": "conan.lock",
        "dependency": {
          "package": {
            "name": "jerryscript"
          },
          "version": "2.2.0"
        }
      },
      "identifiers": [
        {
          "type": "gemnasium",
          "name": "Gemnasium-57af9db1-0aaf-482d-b0b5-1ea4f2027ca0",
          "value": "57af9db1-0aaf-482d-b0b5-1ea4f2027ca0",
          "url": "https://gitlab.com/gitlab-org/security-products/gemnasium-db/-/blob/v1.2.142/conan/jerryscript/CVE-2020-24345.yml"
        },
        {
          "type": "cve",
          "name": "CVE-2020-24345",
          "value": "CVE-2020-24345",
          "url": "https://cve.mitre.org/cgi-bin/cvename.cgi?name=CVE-2020-24345"
        }
      ],
      "links": [
        {
          "url": "https://github.com/jerryscript-project/jerryscript/issues/3977"
        },
        {
          "url": "https://nvd.nist.gov/vuln/detail/CVE-2020-24345"
        }
      ]
    },
    {
      "id": "f9b8a3782b32fd51f7b0b259e2089c908a2f578c60fa4ff1b0e29fdec23af208",
      "category": "dependency_scanning",
      "name": "Out-of-bounds Read",
      "message": "Out-of-bounds Read in jerryscript",
      "description": "JerryScript is vulnerable to a buffer over-read.",
      "cve": "conan.lock:jerryscript:gemnasium:7c4e8b05-e4e2-43fc-8fea-665da419fd04",
      "severity": "High",
      "solution": "Unfortunately, there is no solution available yet.",
      "scanner": {
        "id": "gemnasium",
        "name": "Gemnasium"
      },
      "location": {
        "file": "conan.lock",
        "dependency": {
          "package": {
            "name": "jerryscript"
          },
          "version": "2.2.0"
        }
      },
      "identifiers": [
        {
          "type": "gemnasium",
          "name": "Gemnasium-7c4e8b05-e4e2-43fc-8fea-665da419fd04",
          "value": "7c4e8b05-e4e2-43fc-8fea-665da419fd04",
          "url": "https://gitlab.com/gitlab-org/security-products/gemnasium-db/-/blob/v1.2.142/conan/jerryscript/CVE-2020-24344.yml"
        },
        {
          "type": "cve",
          "name": "CVE-2020-24344",
          "value": "CVE-2020-24344",
          "url": "https://cve.mitre.org/cgi-bin/cvename.cgi?name=CVE-2020-24344"
        }
      ],
      "links": [
        {
          "url": "https://github.com/jerryscript-project/jerryscript/issues/3976"
        },
        {
          "url": "https://nvd.nist.gov/vuln/detail/CVE-2020-24344"
        }
      ]
    },
    {
      "id": "8d202756b21deeddc9243541fedbee57961209d0cbc769fe020cfa086a1d9bda",
      "category": "dependency_scanning",
      "name": "NULL Pointer Dereference",
      "message": "NULL Pointer Dereference in jerryscript",
      "description": "`parser/js/js-scanner.c` in JerryScript mishandles errors during certain out-of-memory conditions, as demonstrated by a `scanner_reverse_info_list` NULL pointer dereference and a `scanner_scan_all` assertion failure.",
      "cve": "conan.lock:jerryscript:gemnasium:e38493c1-c8ba-40b7-9d94-ea7fec727336",
      "severity": "High",
      "solution": "Upgrade to version 2.3.0 or above.",
      "scanner": {
        "id": "gemnasium",
        "name": "Gemnasium"
      },
      "location": {
        "file": "conan.lock",
        "dependency": {
          "package": {
            "name": "jerryscript"
          },
          "version": "2.2.0"
        }
      },
      "identifiers": [
        {
          "type": "gemnasium",
          "name": "Gemnasium-e38493c1-c8ba-40b7-9d94-ea7fec727336",
          "value": "e38493c1-c8ba-40b7-9d94-ea7fec727336",
          "url": "https://gitlab.com/gitlab-org/security-products/gemnasium-db/-/blob/v1.2.142/conan/jerryscript/CVE-2020-13649.yml"
        },
        {
          "type": "cve",
          "name": "CVE-2020-13649",
          "value": "CVE-2020-13649",
          "url": "https://cve.mitre.org/cgi-bin/cvename.cgi?name=CVE-2020-13649"
        }
      ],
      "links": [
        {
          "url": "https://nvd.nist.gov/vuln/detail/CVE-2020-13649"
        }
      ]
    },
    {
      "id": "ed62f848490b9600ca7f1fff90c3769b237c0ae662bebb811fa28c479a038e7e",
      "category": "dependency_scanning",
      "name": "Improper Input Validation",
      "message": "Improper Input Validation in wolfssl",
      "description": "wolfSSL mishandles the change_cipher_spec (CCS) message processing logic for TLS 1.3. If an attacker sends `ChangeCipherSpec` messages in a crafted way involving more than one in a row, the server becomes stuck in the `ProcessReply()` loop, i.e., a denial of service.",
      "cve": "conan.lock:wolfssl:gemnasium:3ecb7d77-2505-4ba8-8598-781d7bbfeaf8",
      "severity": "High",
      "solution": "Unfortunately, there is no solution available yet.",
      "scanner": {
        "id": "gemnasium",
        "name": "Gemnasium"
      },
      "location": {
        "file": "conan.lock",
        "dependency": {
          "package": {
            "name": "wolfssl"
          },
          "version": "4.4.0"
        }
      },
      "identifiers": [
        {
          "type": "gemnasium",
          "name": "Gemnasium-3ecb7d77-2505-4ba8-8598-781d7bbfeaf8",
          "value": "3ecb7d77-2505-4ba8-8598-781d7bbfeaf8",
          "url": "https://gitlab.com/gitlab-org/security-products/gemnasium-db/-/blob/v1.2.142/conan/wolfssl/CVE-2020-12457.yml"
        },
        {
          "type": "cve",
          "name": "CVE-2020-12457",
          "value": "CVE-2020-12457",
          "url": "https://cve.mitre.org/cgi-bin/cvename.cgi?name=CVE-2020-12457"
        }
      ],
      "links": [
        {
          "url": "https://nvd.nist.gov/vuln/detail/CVE-2020-12457"
        }
      ]
    },
    {
      "id": "e438fa2778b6c400b57816c1de9245bce4895eafe25546893c05f849727b1ce3",
      "category": "dependency_scanning",
      "name": "Concurrent Execution using Shared Resource with Improper Synchronization (Race Condition)",
      "message": "Concurrent Execution using Shared Resource with Improper Synchronization (Race Condition) in wolfssl",
      "description": "An issue was discovered in wolfSSL when single precision is not employed. Local attackers can conduct a cache-timing attack against public key operations. These attackers may already have obtained sensitive information if the affected system has been used for private key operations (e.g., signing with a private key).",
      "cve": "conan.lock:wolfssl:gemnasium:f23a47a2-7a1d-46fa-a245-f9d92b1e7e2a",
      "severity": "High",
      "solution": "Unfortunately, there is no solution available yet.",
      "scanner": {
        "id": "gemnasium",
        "name": "Gemnasium"
      },
      "location": {
        "file": "conan.lock",
        "dependency": {
          "package": {
            "name": "wolfssl"
          },
          "version": "4.4.0"
        }
      },
      "identifiers": [
        {
          "type": "gemnasium",
          "name": "Gemnasium-f23a47a2-7a1d-46fa-a245-f9d92b1e7e2a",
          "value": "f23a47a2-7a1d-46fa-a245-f9d92b1e7e2a",
          "url": "https://gitlab.com/gitlab-org/security-products/gemnasium-db/-/blob/v1.2.142/conan/wolfssl/CVE-2020-15309.yml"
        },
        {
          "type": "cve",
          "name": "CVE-2020-15309",
          "value": "CVE-2020-15309",
          "url": "https://cve.mitre.org/cgi-bin/cvename.cgi?name=CVE-2020-15309"
        }
      ],
      "links": [
        {
          "url": "https://nvd.nist.gov/vuln/detail/CVE-2020-15309"
        }
      ]
    },
    {
      "id": "37421372540e6d11d4c9f5be1d354a0bc301c5fc3489449663e1a878ce23a34e",
      "category": "dependency_scanning",
      "name": "Cryptographic Issues",
      "message": "Cryptographic Issues in wolfssl",
      "description": "An issue was discovered in the DTLS handshake implementation in wolfSSL. Clear DTLS application_data messages in epoch 0 do not produce an out-of-order error. Instead, these messages are returned to the application.",
      "cve": "conan.lock:wolfssl:gemnasium:e93de5b9-5b92-465c-a764-4851ad6920b0",
      "severity": "Medium",
      "solution": "Unfortunately, there is no solution available yet.",
      "scanner": {
        "id": "gemnasium",
        "name": "Gemnasium"
      },
      "location": {
        "file": "conan.lock",
        "dependency": {
          "package": {
            "name": "wolfssl"
          },
          "version": "4.4.0"
        }
      },
      "identifiers": [
        {
          "type": "gemnasium",
          "name": "Gemnasium-e93de5b9-5b92-465c-a764-4851ad6920b0",
          "value": "e93de5b9-5b92-465c-a764-4851ad6920b0",
          "url": "https://gitlab.com/gitlab-org/security-products/gemnasium-db/-/blob/v1.2.142/conan/wolfssl/CVE-2020-24585.yml"
        },
        {
          "type": "cve",
          "name": "CVE-2020-24585",
          "value": "CVE-2020-24585",
          "url": "https://cve.mitre.org/cgi-bin/cvename.cgi?name=CVE-2020-24585"
        }
      ],
      "links": [
        {
          "url": "https://nvd.nist.gov/vuln/detail/CVE-2020-24585"
        }
      ]
    },
    {
      "id": "5a8d38a87fc5b9e606e1f4a0b6b184c08a435ad748efb94e3772bf325fa77d98",
      "category": "dependency_scanning",
      "name": "Improper Certificate Validation",
      "message": "Improper Certificate Validation in wolfssl",
      "description": "wolfSSL mishandles TLS server data in the `WAIT_CERT_CR` state, within `SanityCheckTls13MsgReceived()` in `tls13.c`. This is an incorrect implementation of the TLS client state machine. This allows attackers in a privileged network position to completely impersonate any TLS servers, and read or modify potentially sensitive information between clients using the wolfSSL library and these TLS servers.",
      "cve": "conan.lock:wolfssl:gemnasium:f334f11b-6d5d-4654-97b6-101f6faa0ad3",
      "severity": "Medium",
      "solution": "Unfortunately, there is no solution available yet.",
      "scanner": {
        "id": "gemnasium",
        "name": "Gemnasium"
      },
      "location": {
        "file": "conan.lock",
        "dependency": {
          "package": {
            "name": "wolfssl"
          },
          "version": "4.4.0"
        }
      },
      "identifiers": [
        {
          "type": "gemnasium",
          "name": "Gemnasium-f334f11b-6d5d-4654-97b6-101f6faa0ad3",
          "value": "f334f11b-6d5d-4654-97b6-101f6faa0ad3",
          "url": "https://gitlab.com/gitlab-org/security-products/gemnasium-db/-/blob/v1.2.142/conan/wolfssl/CVE-2020-24613.yml"
        },
        {
          "type": "cve",
          "name": "CVE-2020-24613",
          "value": "CVE-2020-24613",
          "url": "https://cve.mitre.org/cgi-bin/cvename.cgi?name=CVE-2020-24613"
        }
      ],
      "links": [
        {
          "url": "https://nvd.nist.gov/vuln/detail/CVE-2020-24613"
        }
      ]
    }
  ],
  "remediations": [],
  "dependency_files": [
    {
      "path": "conan.lock",
      "package_manager": "conan",
      "dependencies": [
        {
          "package": {
            "name": "jerryscript"
          },
          "version": "2.2.0"
        },
        {
          "package": {
            "name": "wolfssl"
          },
          "version": "4.4.0"
        },
        {
          "package": {
            "name": "zstd"
          },
          "version": "1.4.4"
        }
      ]
    }
  ],
  "scan": {
    "scanner": {
      "id": "gemnasium",
      "name": "Gemnasium",
      "url": "https://gitlab.com/gitlab-org/security-products/analyzers/gemnasium",
      "vendor": {
        "name": "GitLab"
      },
      "version": "2.29.5"
    },
    "type": "dependency_scanning",
    "start_time": "2021-03-26T04:53:08",
    "end_time": "2021-03-26T04:53:09",
    "status": "success"
  }
}
